second week: Introduction to R and Rstudio
…
as it could be seen the hypothesis accepted .

3- i will show that the variance of adj_campx that is cam_px divided by surface of mobile (dialay_size) is lower than cam_px or theire value getting lower by time either you can not see this on cam_pxthat shows there mobile phone campany tend to increase display size when they have more cam_px .

mbl %>% 
  filter(company == "Nokia") %>% 
  mutate(adj_campx= cam_px/display_size) %>% 
  group_by(year) %>% 
  summarise(cam_px = mean(cam_px,na.rm=T) , adj_campx = mean(adj_campx,na.rm=T))-> lmbl
lmbl

## # A tibble: 23 x 3
##     year  cam_px adj_campx
##    <int>   <dbl>     <dbl>
##  1  1995 NaN       NaN    
##  2  1997 NaN       NaN    
##  3  1998 NaN       NaN    
##  4  1999 NaN       NaN    
##  5  2000 NaN       NaN    
##  6  2001 NaN       NaN    
##  7  2002   0.300     0.143
##  8  2003   0.300     0.158
##  9  2004   0.588     0.283
## 10  2005   1.49      0.699
## # ... with 13 more rows
…
