Association rules
…
.     . .      .         .     .         .           .

                                    .         34864      .                 .

rating %>% filter(MovieID %in% movie$MovieID) %>% group_by(MovieID) %>% summarise(mean_rate=mean(Rating,na.rm=T),count=n()) %>% filter(count >2000)%>% group_by(MovieID) %>% 
  mutate(movie_name = movie$Title[movie$MovieID==MovieID]) %>% arrange(-count)-> mean_rate_count
mean_rate_count %>% arrange(-mean_rate)

## # A tibble: 1,241 x 4
## # Groups:   MovieID [1,241]
##    MovieID mean_rate count movie_name                                   
##      <int>     <dbl> <int> <chr>                                        
##  1     318      4.46 31126 Shawshank Redemption, The (1994)             
##  2     858      4.42 19814 Godfather, The (1972)                        
##  3      50      4.37 24037 Usual Suspects, The (1995)                   
##  4     527      4.36 25777 Schindler's List (1993)                      
##  5     922      4.32  3255 Sunset Blvd. (a.k.a. Sunset Boulevard) (1950)
##  6     912      4.32 12507 Casablanca (1942)                            
##  7     904      4.32  8825 Rear Window (1954)                           
##  8    3435      4.32  2403 Double Indemnity (1944)                      
##  9    2019      4.31  5751 Seven Samurai (Shichinin no samurai) (1954)  
## 10    1212      4.31  3265 Third Man, The (1949)                        
## # ... with 1,231 more rows
…
.      I use mean rate of each movie in here :

rating %>% filter(MovieID %in% movie$MovieID) %>% group_by(MovieID) %>% summarise(mean_rate=mean(Rating,na.rm=T))%>% group_by(MovieID) %>% 
  mutate(movie_name = movie$Title[movie$MovieID==MovieID])-> mean_rate_count
mean_rate_count %>% arrange(-mean_rate)

## # A tibble: 9,334 x 3
## # Groups:   MovieID [9,334]
##    MovieID mean_rate movie_name                                           
##      <int>     <dbl> <chr>                                                
##  1   33264      5.00 Satan's Tango (Stntang) (1994)                    
##  2   42783      5.00 Shadows of Forgotten Ancestors (1964)                
##  3   51209      5.00 Fighting Elegy (Kenka erejii) (1966)                 
##  4    4454      4.75 More (1998)                                          
##  5    5194      4.75 Who's Singin' Over There? (a.k.a. Who Sings Over The
##  6   26048      4.75 Human Condition II, The (Ningen no joken II) (1959)  
##  7   26073      4.75 Human Condition III, The (Ningen no joken III) (1961)
##  8    5849      4.67 I'm Starting From Three (Ricomincio da Tre) (1981)   
##  9   32657      4.57 Man Who Planted Trees, The (Homme qui plantait des a
## 10    3226      4.50 Hellhounds on My Trail (1999)                        
## # ... with 9,324 more rows
…
